{
  "version": 1,
  "wallpaper": {
    "future": false,
    "preview": "10.jpg",
    "source": "https://storage.ape.yandex.net/get/TableauBackgrounds/447d8920ed9e6cf26baadb976d0f5829.jpg",
    "video": false,
    "avg_color": "light"
  }
}
