{
    "version": 1,
    "wallpaper": {
        "future": false,
        "preview": "ship.jpg",
        "source": "https://storage.ape.yandex.net/get/d1d98cd1d17ba9c1d3d6479dd00a1579.jpg",
        "video": false
    }
}